{
    "lab": {
        "build_requirements": {
            "platform": {
                "arch": "i386", 
                "build_steps": {
                    "build": ["make -C ../src"],
                    "configure": [],
                    "post_build": [], 
                    "pre_build": [], 
                    "status": []
                }, 
                "installer": [], 
                "os": "ubuntu", 
                "osVersion": "12", 
                "service_pack": ""
            }
        }, 
        "description": {
            "developer": [
                {
                    "contact": {
                        "alternate_email": "", 
                        "email": "sujata.agashe@yahoo.com", 
                        "mobile_number": "", 
                        "office_number": ""
                    }, 
                    "department": "", 
                    "institute": "COE Pune", 
                    "name": "Sujatha Agashe", 
                    "organization": "", 
                    "role": "Lab Developer", 
                    "title": "", 
                    "web": ""
                }, 
                {
                    "contact": {
                        "alternate_email": "", 
                        "email": "laxmikantpk@gmail.com", 
                        "mobile_number": "", 
                        "office_number": ""
                    }, 
                    "department": "", 
                    "institute": "COE Pune", 
                    "name": "Laxmikant Kumbhare", 
                    "organization": "", 
                    "role": "Lab RA", 
                    "title": "", 
                    "web": ""
                }
            ], 
            "discipline": [
                "Electrical Engineering"
            ], 
            "id": "eee09", 
            "integration_level": 5, 
            "name": "Industrial Automation Laboratory", 
            "server-side": true, 
            "status": "Released", 
            "type": "Simulation"
        }, 
        "runtime_requirements": {
            "platform": {
                "arch": "i386", 
                "hosting": "dedicated", 
                "installer": ["sudo apt-get install -y php5 apache2"], 
                "lab_actions": {
                    "backup": [
                    ], 
                    "clean": [], 
                    "init": [
                        "cp -r ../build/* /var/www/",
                        "chmod 775 /var/www/build/ -R"
                    ], 
                    "pause": [], 
                    "publish": [], 
                    "restore": [
                        "restore"
                    ], 
                    "resume": [], 
                    "shutdown": [
                        "service apache2 stop"
                    ], 
                    "start": [
                        "service apache2 start"
                    ], 
                    "stats": [], 
                    "stop": []
                }, 
                "memory": {
                    "max_required": "2gb", 
                    "min_required": "256mb"
                }, 
                "os": "ubuntu", 
                "osVersion": "12", 
                "servicepack": "", 
                "storage": {
                    "min_required": "10gb"
                }
            }
        }
    }, 
    "template": "1.0"
}
